{
  "profiles": {
    "kestrel": {
      "commandName": "kestrel",
      "environmentVariables": {
        "ASPNET_ENV": "Development",
        "OFFER-ENGINE_CONFIGURATION_PORT": "5008",
        "OFFER-ENGINE_TENANT_PORT": "5014",
        "LOG_FORMAT": "plain",
        "OFFER-ENGINE_CONFIGURATION_HOST": "192.168.1.71",
        "OFFER-ENGINE_EVENTHUB_PORT": "5004",
        "OFFER-ENGINE_EVENTHUB_HOST": "192.168.1.71",
        "OFFER-ENGINE_TENANT_HOST": "192.168.1.71",
        "OFFER-ENGINE_MONGO_CONNECTION": "mongodb://192.168.1.71",
        "OFFER-ENGINE_MONGO_DATABASE": "offer-engine",
        "OFFER-ENGINE_GEOPROFILE_PORT": "6006",
        "OFFER-ENGINE_GEOPROFILE_HOST": "192.168.1.71",
        "OFFER-ENGINE_CRIFCREDITREPORT_PORT": "5103",
        "OFFER-ENGINE_CRIFCREDITREPORT_HOST": "192.168.1.71",
        "OFFER-ENGINE_CIBIL_PORT": "5113",
        "OFFER-ENGINE_CIBIL_HOST": "192.168.1.71",
        "OFFER-ENGINE_CRIFPANVERIFICATION_PORT": "5105",
        "OFFER-ENGINE_CRIFPANVERIFICATION_HOST": "192.168.1.71",
        "OFFER-ENGINE_APPLICATION_PORT": "6003",
        "OFFER-ENGINE_APPLICATION_HOST": "192.168.1.71",
        "OFFER-ENGINE_APPLICANT_PORT": "6004",
        "OFFER-ENGINE_APPLICANT_HOST": "192.168.1.71",
        "OFFER-ENGINE_DECISIONENGINE_PORT": "5076",
        "OFFER-ENGINE_DECISIONENGINE_HOST": "192.168.1.71",
        "OFFER-ENGINE_PERFIOS_PORT": "5101",
        "OFFER-ENGINE_PERFIOS_HOST": "192.168.1.71",
        "OFFER-ENGINE_LENDDO_PORT": "5106",
        "OFFER-ENGINE_LENDDO_HOST": "192.168.1.71",
        "OFFER-ENGINE_COMPANYDB_PORT": "6005",
        "OFFER-ENGINE_COMPANYDB_HOST": "192.168.1.71",
        "OFFER-ENGINE_SCORECARD_PORT": "7006",
        "OFFER-ENGINE_SCORECARD_HOST": "192.168.1.71",
        "OFFER-ENGINE_DATAATTRIBUTES_PORT": "7003",
        "OFFER-ENGINE_DATAATTRIBUTES_HOST": "192.168.1.71",
        "OFFER-ENGINE_LOOKUP_PORT": "5041",
        "OFFER-ENGINE_LOOKUP_HOST": "192.168.1.71",
        "OFFER-ENGINE_STATUSMANAGEMENT_PORT": "6002",
        "OFFER-ENGINE_STATUSMANAGEMENT_HOST": "192.168.1.71",
        "OFFER-ENGINE_APPLICATION-CONSENT_PORT": "5208",
        "OFFER-ENGINE_APPLICATION-CONSENT_HOST": "192.168.1.71",
        "OFFER-ENGINE_VIEWDNS_PORT": "5111",
        "OFFER-ENGINE_VIEWDNS_HOST": "192.168.1.71",
        "OFFER-ENGINE_ZUMIGO_PORT": "5110",
        "OFFER-ENGINE_ZUMIGO_HOST": "192.168.1.71",
        "OFFER-ENGINE_EMAILHUNTER_PORT": "5102",
        "OFFER-ENGINE_EMAILHUNTER_HOST": "192.168.1.71",
        "OFFER-ENGINE_VERIFICATIONENGINE_PORT": "5212",
        "OFFER-ENGINE_VERIFICATIONENGINE_HOST": "192.168.1.71",
        "OFFER-ENGINE_EMAILOTP_PORT": "5203",
        "OFFER-ENGINE_EMAILOTP_HOST": "192.168.1.71",
        "OFFER-ENGINE_APPLICATIONFILTERS_PORT": "6001",
        "OFFER-ENGINE_APPLICATIONFILTERS_HOST": "192.168.1.71",
        "OFFER-ENGINE_APPLICATIONDOCUMENT_HOST": "192.168.1.71",
        "OFFER-ENGINE_APPLICATIONDOCUMENT_PORT": "5204",
        "OFFER-ENGINE_TOWERDATA_HOST": "192.168.1.71",
        "OFFER-ENGINE_TOWERDATA_PORT": "5114",
        "OFFER-ENGINE_ALERTENGINE_HOST": "192.168.1.71",
        "OFFER-ENGINE_ALERTENGINE_PORT": "5058",
        "OFFER-ENGINE_NATS_URL": "192.168.1.71:4222",
        "OFFER-ENGINE_Yodlee_PORT": "5115",
        "OFFER-ENGINE_Yodlee_HOST": "192.168.1.71",
        "OFFER-ENGINE_DocumentManager_Host": "192.168.1.71",
        "OFFER-ENGINE_DocumentManager_Port" :  "5050"
      }
    },
    "CreditExchange.OfferEngine.Api": {
      "commandName": "Project"
    }
  }
}